<?xml version="1.0" encoding="utf-8"?>
<!-- Generator: Adobe Illustrator 18.1.0, SVG Export Plug-In . SVG Version: 6.00 Build 0)  -->
<!DOCTYPE svg PUBLIC "-//W3C//DTD SVG 1.1//EN" "http://www.w3.org/Graphics/SVG/1.1/DTD/svg11.dtd">
<svg version="1.1" id="Layer_1" xmlns="http://www.w3.org/2000/svg" xmlns:xlink="http://www.w3.org/1999/xlink" x="0px" y="0px"
	 viewBox="0 0 80 80" enable-background="new 0 0 80 80" xml:space="preserve">
<g>
	
		<circle fill="none" stroke="#205081" stroke-linecap="round" stroke-linejoin="round" stroke-miterlimit="10" cx="40" cy="40" r="39.5"/>
	<polygon fill="#F6C342" stroke="#205081" stroke-linecap="round" stroke-linejoin="round" stroke-miterlimit="10" points="
		48.6,48.6 31.4,31.4 60.6,19.4 	"/>
	<polygon fill="#F5F5F5" stroke="#205081" stroke-linecap="round" stroke-linejoin="round" stroke-miterlimit="10" points="
		48.6,48.6 31.4,31.4 19.4,60.6 	"/>
</g>
</svg>
