{
  "navigation": {
    "name": "confcloud",
    "title": "Confluence Cloud",
    "url": "/cloud/confluence/",
    "categories": [
      {
        "title": "Guides",
        "indexLinkTitle": "Latest updates",
        "name": "devguide",
        "url": "/cloud/confluence/",
        "subcategories": [
          {
            "title": "Introduction and basics",
            "expandAlways": true,
            "name": "intro",
            "items": [
              {
                "title": "About Confluence Cloud",
                "url": "/cloud/confluence/about-confluence-cloud/"
              },
              {
                "title": "Integrating with Confluence Cloud",
                "url": "/cloud/confluence/integrating-with-confluence-cloud/"
              },
              {
                "title": "Getting started",
                "url": "/cloud/confluence/getting-started"
              },
              {
                "title": "Architecture overview",
                "url": "/cloud/confluence/architecture-overview/"
              },
              {
                "title": "Frameworks and tools",
                "url": "/cloud/confluence/frameworks-and-tools/"
              }
            ]
          },
          {
            "title": "Security",
            "expandAlways": true,
            "name": "security",
            "items": [
              {
                "title": "Security overview",
                "url": "/cloud/confluence/security-overview"
              },
              {
                "title": "Understanding JWT",
                "url": "/cloud/confluence/understanding-jwt"
              },
              {
                "title": "OAuth 2.0 bearer tokens for apps",
                "url": "/cloud/confluence/oauth-2-jwt-bearer-tokens-for-apps"
              },
              {
                "title": "Basic auth for REST APIs",
                "url": "/cloud/confluence/basic-auth-for-rest-apis"
              },
              {
                "title": "Authentication for apps",
                "url": "/cloud/confluence/authentication-for-apps"
              }
            ]
          },
          {
            "title": "Learning",
            "expandAlways": true,
            "name": "guides",
            "items": [
              {
                "title": "Connect cookbook",
                "url": "/cloud/confluence/connect-cookbook"
              },
              {
                "title": "Patterns and examples",
                "url": "/cloud/confluence/patterns-and-examples"
              },
              {
                "id": "tutorialsAndGuides",
                "title": "Tutorials and guides",
                "url": "/cloud/confluence/tutorials-and-guides"
              },
              {
                "title": "Storing data without a database",
                "url": "/cloud/confluence/storing-data-without-a-database"
              },
              {
                "title": "Content properties in the REST API",
                "url": "/cloud/confluence/content-properties"
              },
              {
                "title": "Glossary",
                "url": "/cloud/confluence/glossary"
              }
            ]
          },
          {
            "title": "Building blocks",
            "expandAlways": true,
            "name": "blocks",
            "items": [
              {
                "title": "App descriptor",
                "url": "/cloud/confluence/app-descriptor"
              },
              {
                "title": "Collaborative editing",
                "url": "/cloud/confluence/collaborative-editing"
              },
              {
                "title": "Conditions",
                "url": "/cloud/confluence/conditions"
              },
              {
                "title": "Context parameters",
                "url": "/cloud/confluence/context-parameters"
              },
              {
                "title": "Internationalization",
                "url": "/cloud/confluence/internationalization/"
              },
              {
                "title": "Scopes",
                "url": "/cloud/confluence/scopes"
              },
              {
                "title": "Theme",
                "url": "/cloud/confluence/theme"
              }
            ]
          },
          {
            "title": "Other considerations",
            "name": "other",
            "expandAlways": true,
            "items": [
              {
                "title": "Atlassian Design Guidelines",
                "url": "https://design.atlassian.com/"
              },
              {
                "title": "AtlasKit",
                "url": "https://atlaskit.atlassian.com/"
              },
              {
                "title": "Developing for Marketplace",
                "url": "/market/developing-for-the-marketplace"
              },
              {
                "title": "Public licensing",
                "url": "/platform/marketplace/cloud-app-licensing/"
              }
            ]
          }
        ]
      },
      {
        "title": "Reference",
        "name": "reference",
        "url": "/cloud/confluence/rest/",
        "subcategories": [
          {
            "title": "REST APIs",
            "name": "rest",
            "items": []
          },
          {
            "title": "CQL",
            "name": "cql",
            "items": [
              {
                "title": "Advanced searching using CQL",
                "url": "/cloud/confluence/advanced-searching-using-cql/"
              },
              {
                "title": "Performing text searches using CQL",
                "url": "/cloud/confluence/performing-text-searches-using-cql/"
              },
              {
                "title": "CQL fields",
                "url": "/cloud/confluence/cql-fields/"
              },
              {
                "title": "CQL functions",
                "url": "/cloud/confluence/cql-functions/"
              },
              {
                "title": "CQL keywords",
                "url": "/cloud/confluence/cql-keywords/"
              },
              {
                "title": "CQL operators",
                "url": "/cloud/confluence/cql-operators/"
              }
            ]
          },
          {
            "title": "Modules",
            "name": "modules",
            "items": []
          },
          {
            "title": "JavaScript API",
            "name": "jsapi",
            "items": [
              {
                "title": "About the JavaScript API",
                "url": "/cloud/confluence/about-the-javascript-api/"
              }
            ]
          },
          {
            "title": "App properties API",
            "name": "appapi",
            "items": [
              {
                "title": "App properties API",
                "url": "/cloud/confluence/app-properties-api"
              }
            ]
          }
        ]
      },
      {
        "name": "help",
        "title": "Resources",
        "url": "/cloud/confluence/get-help/"
      }
    ]
  }
}
